Journal (reproducible report)
…
## Rows: 231
## Columns: 9
## $ bike.id        <dbl> 2875, 2873, 2874, 2876, 2877, 2225, 2091, 2086, 2088...
## $ model          <chr> "Aeroad CF SL Disc 8.0 Di2", "Aeroad CF SLX Disc 9.0...
## $ model.year     <dbl> 2020, 2020, 2020, 2020, 2020, 2019, 2019, 2021, 2020...
## $ frame.material <chr> "carbon", "carbon", "carbon", "carbon", "carbon", "c...
## $ weight         <dbl> 7.60, 7.27, 7.10, 7.73, 7.83, 6.80, 6.80, 7.60, 7.30...
## $ price          <dbl> 4579, 6919, 6429, 5069, 3609, 6139, 5359, 2629, 3699...
## $ category       <chr> "Road - Race - Aeroad", "Road - Race - Aeroad", "Roa...
## $ gender         <chr> "unisex", "unisex", "unisex", "unisex", "unisex", "u...
## $ url            <chr> "https://www.canyon.com/en-de/road-bikes/race-bikes/...

bikes %>% select(c(model,bike.id,model.year))

## # A tibble: 231 x 3
##    model                       bike.id model.year
##    <chr>                         <dbl>      <dbl>
##  1 Aeroad CF SL Disc 8.0 Di2      2875       2020
##  2 Aeroad CF SLX Disc 9.0 ETAP    2873       2020
##  3 Aeroad CF SLX Disc 9.0 Di2     2874       2020
##  4 Aeroad CF SL Disc 8.0 ETAP     2876       2020
##  5 Aeroad CF SL Disc 8.0          2877       2020
##  6 Aeroad CF SLX 9.0 SL           2225       2019
##  7 Aeroad CF SLX 9.0 Di2          2091       2019
##  8 Aeroad CF SL 7.0               2086       2021
##  9 Aeroad CF SL 8.0 Di2           2088       2020
## 10 Aeroad WMN CF SL 8.0           2120       2020
## # ... with 221 more rows
…
3.1 Challenges

# Challenge 1 ----

first_tbl <- assignee_tbl %>% filter(type == 2) %>% 
  select(-type) %>%
  left_join(patent_assignee_tbl, by = c("id"="assignee_id")) %>% 
  group_by(organization) %>%
  count(organization,name = "count", sort=TRUE) %>%
  slice(1:10)
first_tbl

## # A tibble: 226,687 x 2
## # Groups:   organization [226,687]
##    organization                                                            count
##    <chr>                                                                   <int>
##  1 "'brellabox Inc."                                                           2
##  2 "!j Incorporated"                                                           2
##  3 "!maginethis Renovations, LLC"                                              3
##  4 "\"\"\"\"\"\"\"\"\"\"\"\"\"\"\"\"\"\"\"\"\"\"\"\"\"\"\"\"\"\"\"A\"\"\"~     5
##  5 "\"\"\"\"\"\"\"\"\"\"\"\"\"\"\"\"\"\"\"\"\"\"\"\"\"\"\"\"\"\"\"A\"\"\"~     2
##  6 "\"\"\"\"\"\"\"\"\"\"\"\"\"\"\"\"\"\"\"\"\"\"\"\"\"\"\"\"\"\"\"A\"\"\"~     2
##  7 "\"\"\"\"\"\"\"\"\"\"\"\"\"\"\"\"\"\"\"\"\"\"\"\"\"\"\"\"\"\"\"Z\"\"\"~     2
##  8 "\"\"\"\"\"\"\"\"\"\"\"\"\"\"\"Advanced Energy Concept \"\"\"\"\"\"\"\~     2
##  9 "\"\"\"\"\"\"\"\"\"\"\"\"\"\"\"Brand \"\"\"\"\"\"\"\"\"\"\"\"\"\"\"\"X~     2
## 10 "\"\"\"\"\"\"\"\"\"\"\"\"\"\"\"Chas. \"\"\"\"\"\"\"\"\"\"\"\"\"\"\"\"R~     3
## # ... with 226,677 more rows
…
assignee_patent_assignee_wrangled <- assignee_tbl %>% 
  left_join(patent_assignee_tbl, by = c("id"="assignee_id")) %>%
  select(-id)

second_tbl <- patent_tbl %>% filter (year(date) == 2019) %>%
  select (-date) %>%
  left_join(assignee_patent_assignee_wrangled, by = c("id" = "patent_id")) %>%
  filter(type == 2) %>%
  group_by(organization) %>%
  count(organization,name = "count", sort=TRUE) %>%
  slice(1:10)
second_tbl

## # A tibble: 26,639 x 2
## # Groups:   organization [26,639]
##    organization         count
##    <chr>                <int>
##  1 #1 A LifeSafer, Inc.     1
##  2 (WE) FOR DOGS, LLC       1
##  3 [24]7.ai, Inc.          20
##  4 03312004 LLC             1
##  5 034MOTORSPORT            1
##  6 1-800 Contacts, Inc.     1
##  7 1,4 Group, Inc.          1
##  8 10&8                     1
##  9 100% Speedlab, LLC       4
## 10 1087 SYSTEMS, INC.       3
## # ... with 26,629 more rows

# Challenge 3 ----
most_innovative_sector <- uspc_tbl %>%
  group_by(mainclass_id) %>%
  count(mainclass_id, name = "count", sort=TRUE) %>%
  slice(1)
most_innovative_sector

## # A tibble: 1,237 x 2
## # Groups:   mainclass_id [1,237]
##    mainclass_id count
##    <chr>        <int>
##  1 -0T              1
##  2 ;16              1
##  3 ;47              1
##  4 ???              1
##  5 0                4
##  6 00               3
##  7 002              6
##  8 004             12
##  9 008              8
## 10 01               1
## # ... with 1,227 more rows
…
